[
  {
    "name": "\u0422\u0435\u043b\u0435\u0444\u043e\u043d",
    "width": 1.65,
    "link": "tel:79537238675",
    "icon": "phone.png",
    "isChangeWidth": "changeWidth"
  },
  {
    "name": "Email",
    "width": 1.65,
    "link": "mailto:tambov.yuvelir@bk.ru",
    "icon": "mail.png",
    "isChangeWidth": ""
  },
  {
    "name": "\u0412\u043a\u043e\u043d\u0442\u0430\u043a\u0442\u0435",
    "width": 1.55,
    "link": "https:\/\/vk.com\/club161825201",
    "icon": "vk.png",
    "isChangeWidth": ""
  },
  {
    "name": "\u041e\u0434\u043d\u043e\u043a\u043b\u0430\u0441\u0441\u043d\u0438\u043a\u0438",
    "width": 0.85,
    "link": "https:\/\/ok.ru\/group\/55333338939407",
    "icon": "ok.png",
    "isChangeWidth": ""
  },
  {
    "name": "\u0418\u0441\u0442\u0430\u0433\u0440\u0430\u043c\u043c",
    "width": 1.3,
    "link": "https:\/\/instagram.com",
    "icon": "inst.png",
    "isChangeWidth": ""
  },
  {
    "name": "Работаем с Bitcoin",
    "width": 1.3,
    "link": "",
    "icon": "bitcoin.png",
    "isChangeWidth": "bitcoin"
  }
]